04 Data Visualization
…
covid_data_tbl <- read_csv("https://covid.ourworldindata.org/data/owid-covid-data.csv")

# 2. Data manipluation

covid_cases_tbl <- covid_data_tbl %>%
  filter(location %in% c("Germany",
                         "United Kingdom",
                         "France",
                         "Spain",
                         "Spain",
                         "United States"))
covid_cases_tbl

## # A tibble: 2,329 x 59
##    iso_code continent location date       total_cases new_cases new_cases_smoot…
##    <chr>    <chr>     <chr>    <date>           <dbl>     <dbl>            <dbl>
##  1 FRA      Europe    France   2020-01-24           2         2           NA    
##  2 FRA      Europe    France   2020-01-25           3         1           NA    
##  3 FRA      Europe    France   2020-01-26           3         0           NA    
##  4 FRA      Europe    France   2020-01-27           3         0           NA    
##  5 FRA      Europe    France   2020-01-28           4         1           NA    
##  6 FRA      Europe    France   2020-01-29           5         1            0.714
##  7 FRA      Europe    France   2020-01-30           5         0            0.714
##  8 FRA      Europe    France   2020-01-31           5         0            0.429
##  9 FRA      Europe    France   2020-02-01           6         1            0.429
## 10 FRA      Europe    France   2020-02-02           6         0            0.429
## # … with 2,319 more rows, and 52 more variables: total_deaths <dbl>,
## #   new_deaths <dbl>, new_deaths_smoothed <dbl>, total_cases_per_million <dbl>,
## #   new_cases_per_million <dbl>, new_cases_smoothed_per_million <dbl>,
## #   total_deaths_per_million <dbl>, new_deaths_per_million <dbl>,
## #   new_deaths_smoothed_per_million <dbl>, reproduction_rate <dbl>,
## #   icu_patients <lgl>, icu_patients_per_million <lgl>, hosp_patients <lgl>,
## #   hosp_patients_per_million <lgl>, weekly_icu_admissions <lgl>,
## #   weekly_icu_admissions_per_million <lgl>, weekly_hosp_admissions <lgl>,
## #   weekly_hosp_admissions_per_million <lgl>, new_tests <dbl>,
…
